^C:\USERS\DOMINO\DESKTOP\INZ III\GRAFIKA\BEZIER_PRZYKLAD\GK.CPP
C:\USERS\DOMINO\DESKTOP\INZ III\GRAFIKA\BEZIER_PRZYKLAD\DEBUG\VC140.PDB
C:\USERS\DOMINO\DESKTOP\INZ III\GRAFIKA\BEZIER_PRZYKLAD\DEBUG\VC140.IDB
C:\USERS\DOMINO\DESKTOP\INZ III\GRAFIKA\BEZIER_PRZYKLAD\DEBUG\GK.OBJ
^C:\USERS\DOMINO\DESKTOP\INZ III\GRAFIKA\BEZIER_PRZYKLAD\GK.CPP|C:\USERS\DOMINO\DESKTOP\INZ III\GRAFIKA\BEZIER_PRZYKLAD\PARTICLE.CPP|C:\USERS\DOMINO\DESKTOP\INZ III\GRAFIKA\BEZIER_PRZYKLAD\WORLD.CPP
C:\USERS\DOMINO\DESKTOP\INZ III\GRAFIKA\BEZIER_PRZYKLAD\DEBUG\VC140.PDB
C:\USERS\DOMINO\DESKTOP\INZ III\GRAFIKA\BEZIER_PRZYKLAD\DEBUG\VC140.IDB
C:\USERS\DOMINO\DESKTOP\INZ III\GRAFIKA\BEZIER_PRZYKLAD\DEBUG\GK.OBJ
C:\USERS\DOMINO\DESKTOP\INZ III\GRAFIKA\BEZIER_PRZYKLAD\DEBUG\PARTICLE.OBJ
C:\USERS\DOMINO\DESKTOP\INZ III\GRAFIKA\BEZIER_PRZYKLAD\DEBUG\WORLD.OBJ
^C:\USERS\DOMINO\DESKTOP\INZ III\GRAFIKA\BEZIER_PRZYKLAD\PARTICLE.CPP
C:\USERS\DOMINO\DESKTOP\INZ III\GRAFIKA\BEZIER_PRZYKLAD\DEBUG\VC140.PDB
C:\USERS\DOMINO\DESKTOP\INZ III\GRAFIKA\BEZIER_PRZYKLAD\DEBUG\VC140.IDB
C:\USERS\DOMINO\DESKTOP\INZ III\GRAFIKA\BEZIER_PRZYKLAD\DEBUG\PARTICLE.OBJ
^C:\USERS\DOMINO\DESKTOP\INZ III\GRAFIKA\BEZIER_PRZYKLAD\WORLD.CPP
C:\USERS\DOMINO\DESKTOP\INZ III\GRAFIKA\BEZIER_PRZYKLAD\DEBUG\VC140.PDB
C:\USERS\DOMINO\DESKTOP\INZ III\GRAFIKA\BEZIER_PRZYKLAD\DEBUG\VC140.IDB
C:\USERS\DOMINO\DESKTOP\INZ III\GRAFIKA\BEZIER_PRZYKLAD\DEBUG\WORLD.OBJ
^C:\USERS\DOMINO\DESKTOP\INZ III\GRAFIKA\BEZIER_PRZYKLAD\GK.CPP|C:\USERS\DOMINO\DESKTOP\INZ III\GRAFIKA\BEZIER_PRZYKLAD\PARTICLE.CPP
C:\USERS\DOMINO\DESKTOP\INZ III\GRAFIKA\BEZIER_PRZYKLAD\DEBUG\VC140.PDB
C:\USERS\DOMINO\DESKTOP\INZ III\GRAFIKA\BEZIER_PRZYKLAD\DEBUG\VC140.IDB
C:\USERS\DOMINO\DESKTOP\INZ III\GRAFIKA\BEZIER_PRZYKLAD\DEBUG\GK.OBJ
C:\USERS\DOMINO\DESKTOP\INZ III\GRAFIKA\BEZIER_PRZYKLAD\DEBUG\PARTICLE.OBJ
^C:\USERS\DOMINO\DESKTOP\INZ III\GRAFIKA\BEZIER_PRZYKLAD\GK.CPP|C:\USERS\DOMINO\DESKTOP\INZ III\GRAFIKA\BEZIER_PRZYKLAD\WORLD.CPP
C:\USERS\DOMINO\DESKTOP\INZ III\GRAFIKA\BEZIER_PRZYKLAD\DEBUG\VC140.PDB
C:\USERS\DOMINO\DESKTOP\INZ III\GRAFIKA\BEZIER_PRZYKLAD\DEBUG\VC140.IDB
C:\USERS\DOMINO\DESKTOP\INZ III\GRAFIKA\BEZIER_PRZYKLAD\DEBUG\GK.OBJ
C:\USERS\DOMINO\DESKTOP\INZ III\GRAFIKA\BEZIER_PRZYKLAD\DEBUG\WORLD.OBJ
